<?xml version="1.0" encoding="UTF-8"?>
<svg xmlns="http://www.w3.org/2000/svg" xmlns:xlink="http://www.w3.org/1999/xlink" width="600pt" height="600pt" viewBox="0 0 600 600" version="1.1">
<defs>
<g>
<symbol overflow="visible" id="glyph0-0">
<path style="stroke:none;" d="M 1 3.53125 L 1 -14.109375 L 11 -14.109375 L 11 3.53125 Z M 2.125 2.421875 L 9.890625 2.421875 L 9.890625 -12.984375 L 2.125 -12.984375 Z M 2.125 2.421875 "/>
</symbol>
<symbol overflow="visible" id="glyph0-1">
<path style="stroke:none;" d="M 1.96875 -14.578125 L 3.9375 -14.578125 L 3.9375 -8.609375 L 11.109375 -8.609375 L 11.109375 -14.578125 L 13.078125 -14.578125 L 13.078125 0 L 11.109375 0 L 11.109375 -6.9375 L 3.9375 -6.9375 L 3.9375 0 L 1.96875 0 Z M 1.96875 -14.578125 "/>
</symbol>
<symbol overflow="visible" id="glyph0-2">
<path style="stroke:none;" d="M 2.34375 -2.484375 L 4.40625 -2.484375 L 4.40625 0 L 2.34375 0 Z M 2.34375 -10.34375 L 4.40625 -10.34375 L 4.40625 -7.859375 L 2.34375 -7.859375 Z M 2.34375 -10.34375 "/>
</symbol>
<symbol overflow="visible" id="glyph0-3">
<path style="stroke:none;" d="M 2.484375 -1.65625 L 5.703125 -1.65625 L 5.703125 -12.78125 L 2.203125 -12.078125 L 2.203125 -13.875 L 5.6875 -14.578125 L 7.65625 -14.578125 L 7.65625 -1.65625 L 10.875 -1.65625 L 10.875 0 L 2.484375 0 Z M 2.484375 -1.65625 "/>
</symbol>
<symbol overflow="visible" id="glyph0-4">
<path style="stroke:none;" d="M 3.84375 -1.65625 L 10.71875 -1.65625 L 10.71875 0 L 1.46875 0 L 1.46875 -1.65625 C 2.21875 -2.4375 3.238281 -3.476562 4.53125 -4.78125 C 5.820312 -6.082031 6.632812 -6.925781 6.96875 -7.3125 C 7.59375 -8.019531 8.03125 -8.617188 8.28125 -9.109375 C 8.53125 -9.597656 8.65625 -10.082031 8.65625 -10.5625 C 8.65625 -11.332031 8.382812 -11.960938 7.84375 -12.453125 C 7.300781 -12.941406 6.59375 -13.1875 5.71875 -13.1875 C 5.101562 -13.1875 4.453125 -13.078125 3.765625 -12.859375 C 3.078125 -12.648438 2.34375 -12.328125 1.5625 -11.890625 L 1.5625 -13.875 C 2.351562 -14.195312 3.09375 -14.4375 3.78125 -14.59375 C 4.476562 -14.757812 5.113281 -14.84375 5.6875 -14.84375 C 7.195312 -14.84375 8.398438 -14.460938 9.296875 -13.703125 C 10.191406 -12.953125 10.640625 -11.945312 10.640625 -10.6875 C 10.640625 -10.082031 10.523438 -9.507812 10.296875 -8.96875 C 10.078125 -8.4375 9.671875 -7.804688 9.078125 -7.078125 C 8.921875 -6.890625 8.40625 -6.34375 7.53125 -5.4375 C 6.65625 -4.539062 5.425781 -3.28125 3.84375 -1.65625 Z M 3.84375 -1.65625 "/>
</symbol>
<symbol overflow="visible" id="glyph0-5">
<path style="stroke:none;" d="M 8.109375 -7.859375 C 9.054688 -7.660156 9.796875 -7.238281 10.328125 -6.59375 C 10.859375 -5.957031 11.125 -5.171875 11.125 -4.234375 C 11.125 -2.796875 10.628906 -1.679688 9.640625 -0.890625 C 8.648438 -0.109375 7.242188 0.28125 5.421875 0.28125 C 4.804688 0.28125 4.175781 0.21875 3.53125 0.09375 C 2.882812 -0.0195312 2.21875 -0.195312 1.53125 -0.4375 L 1.53125 -2.34375 C 2.070312 -2.019531 2.664062 -1.773438 3.3125 -1.609375 C 3.96875 -1.453125 4.648438 -1.375 5.359375 -1.375 C 6.597656 -1.375 7.539062 -1.617188 8.1875 -2.109375 C 8.832031 -2.597656 9.15625 -3.304688 9.15625 -4.234375 C 9.15625 -5.097656 8.851562 -5.769531 8.25 -6.25 C 7.65625 -6.738281 6.820312 -6.984375 5.75 -6.984375 L 4.046875 -6.984375 L 4.046875 -8.609375 L 5.828125 -8.609375 C 6.796875 -8.609375 7.535156 -8.800781 8.046875 -9.1875 C 8.554688 -9.570312 8.8125 -10.128906 8.8125 -10.859375 C 8.8125 -11.609375 8.546875 -12.179688 8.015625 -12.578125 C 7.492188 -12.984375 6.738281 -13.1875 5.75 -13.1875 C 5.207031 -13.1875 4.625 -13.125 4 -13 C 3.382812 -12.882812 2.707031 -12.707031 1.96875 -12.46875 L 1.96875 -14.21875 C 2.71875 -14.425781 3.414062 -14.582031 4.0625 -14.6875 C 4.71875 -14.789062 5.335938 -14.84375 5.921875 -14.84375 C 7.421875 -14.84375 8.601562 -14.5 9.46875 -13.8125 C 10.34375 -13.132812 10.78125 -12.21875 10.78125 -11.0625 C 10.78125 -10.257812 10.546875 -9.578125 10.078125 -9.015625 C 9.617188 -8.460938 8.960938 -8.078125 8.109375 -7.859375 Z M 8.109375 -7.859375 "/>
</symbol>
<symbol overflow="visible" id="glyph0-6">
<path style="stroke:none;" d="M 12.875 -13.453125 L 12.875 -11.375 C 12.21875 -12 11.507812 -12.460938 10.75 -12.765625 C 10 -13.066406 9.203125 -13.21875 8.359375 -13.21875 C 6.691406 -13.21875 5.414062 -12.707031 4.53125 -11.6875 C 3.644531 -10.675781 3.203125 -9.207031 3.203125 -7.28125 C 3.203125 -5.351562 3.644531 -3.878906 4.53125 -2.859375 C 5.414062 -1.847656 6.691406 -1.34375 8.359375 -1.34375 C 9.203125 -1.34375 10 -1.492188 10.75 -1.796875 C 11.507812 -2.097656 12.21875 -2.5625 12.875 -3.1875 L 12.875 -1.125 C 12.1875 -0.65625 11.457031 -0.300781 10.6875 -0.0625 C 9.914062 0.164062 9.101562 0.28125 8.25 0.28125 C 6.039062 0.28125 4.300781 -0.390625 3.03125 -1.734375 C 1.757812 -3.085938 1.125 -4.9375 1.125 -7.28125 C 1.125 -9.625 1.757812 -11.46875 3.03125 -12.8125 C 4.300781 -14.164062 6.039062 -14.84375 8.25 -14.84375 C 9.113281 -14.84375 9.929688 -14.726562 10.703125 -14.5 C 11.472656 -14.269531 12.195312 -13.921875 12.875 -13.453125 Z M 12.875 -13.453125 "/>
</symbol>
<symbol overflow="visible" id="glyph0-7">
<path style="stroke:none;" d="M 7.5625 -12.859375 L 2.578125 -5.078125 L 7.5625 -5.078125 Z M 7.046875 -14.578125 L 9.515625 -14.578125 L 9.515625 -5.078125 L 11.609375 -5.078125 L 11.609375 -3.4375 L 9.515625 -3.4375 L 9.515625 0 L 7.5625 0 L 7.5625 -3.4375 L 0.984375 -3.4375 L 0.984375 -5.34375 Z M 7.046875 -14.578125 "/>
</symbol>
<symbol overflow="visible" id="glyph0-8">
<path style="stroke:none;" d="M 7.875 -13.25 C 6.445312 -13.25 5.3125 -12.710938 4.46875 -11.640625 C 3.625 -10.578125 3.203125 -9.125 3.203125 -7.28125 C 3.203125 -5.4375 3.625 -3.976562 4.46875 -2.90625 C 5.3125 -1.84375 6.445312 -1.3125 7.875 -1.3125 C 9.3125 -1.3125 10.445312 -1.84375 11.28125 -2.90625 C 12.125 -3.976562 12.546875 -5.4375 12.546875 -7.28125 C 12.546875 -9.125 12.125 -10.578125 11.28125 -11.640625 C 10.445312 -12.710938 9.3125 -13.25 7.875 -13.25 Z M 7.875 -14.84375 C 9.925781 -14.84375 11.5625 -14.15625 12.78125 -12.78125 C 14.007812 -11.414062 14.625 -9.582031 14.625 -7.28125 C 14.625 -4.976562 14.007812 -3.140625 12.78125 -1.765625 C 11.5625 -0.398438 9.925781 0.28125 7.875 0.28125 C 5.832031 0.28125 4.195312 -0.398438 2.96875 -1.765625 C 1.738281 -3.128906 1.125 -4.96875 1.125 -7.28125 C 1.125 -9.582031 1.738281 -11.414062 2.96875 -12.78125 C 4.195312 -14.15625 5.832031 -14.84375 7.875 -14.84375 Z M 7.875 -14.84375 "/>
</symbol>
<symbol overflow="visible" id="glyph0-9">
<path style="stroke:none;" d="M 2.15625 -14.578125 L 9.90625 -14.578125 L 9.90625 -12.921875 L 3.96875 -12.921875 L 3.96875 -9.34375 C 4.25 -9.445312 4.53125 -9.519531 4.8125 -9.5625 C 5.101562 -9.613281 5.394531 -9.640625 5.6875 -9.640625 C 7.3125 -9.640625 8.597656 -9.191406 9.546875 -8.296875 C 10.503906 -7.410156 10.984375 -6.203125 10.984375 -4.671875 C 10.984375 -3.109375 10.492188 -1.890625 9.515625 -1.015625 C 8.535156 -0.148438 7.15625 0.28125 5.375 0.28125 C 4.769531 0.28125 4.148438 0.226562 3.515625 0.125 C 2.878906 0.0195312 2.222656 -0.132812 1.546875 -0.34375 L 1.546875 -2.328125 C 2.128906 -2.003906 2.734375 -1.765625 3.359375 -1.609375 C 3.984375 -1.453125 4.644531 -1.375 5.34375 -1.375 C 6.46875 -1.375 7.359375 -1.671875 8.015625 -2.265625 C 8.671875 -2.859375 9 -3.660156 9 -4.671875 C 9 -5.691406 8.671875 -6.5 8.015625 -7.09375 C 7.359375 -7.6875 6.46875 -7.984375 5.34375 -7.984375 C 4.8125 -7.984375 4.285156 -7.921875 3.765625 -7.796875 C 3.242188 -7.679688 2.707031 -7.5 2.15625 -7.25 Z M 2.15625 -14.578125 "/>
</symbol>
<symbol overflow="visible" id="glyph0-10">
<path style="stroke:none;" d="M 6.609375 -8.078125 C 5.722656 -8.078125 5.019531 -7.773438 4.5 -7.171875 C 3.976562 -6.566406 3.71875 -5.734375 3.71875 -4.671875 C 3.71875 -3.628906 3.976562 -2.800781 4.5 -2.1875 C 5.019531 -1.582031 5.722656 -1.28125 6.609375 -1.28125 C 7.492188 -1.28125 8.191406 -1.582031 8.703125 -2.1875 C 9.222656 -2.800781 9.484375 -3.628906 9.484375 -4.671875 C 9.484375 -5.734375 9.222656 -6.566406 8.703125 -7.171875 C 8.191406 -7.773438 7.492188 -8.078125 6.609375 -8.078125 Z M 10.515625 -14.265625 L 10.515625 -12.46875 C 10.023438 -12.695312 9.523438 -12.875 9.015625 -13 C 8.515625 -13.125 8.015625 -13.1875 7.515625 -13.1875 C 6.210938 -13.1875 5.21875 -12.742188 4.53125 -11.859375 C 3.84375 -10.984375 3.453125 -9.65625 3.359375 -7.875 C 3.742188 -8.445312 4.222656 -8.882812 4.796875 -9.1875 C 5.378906 -9.488281 6.019531 -9.640625 6.71875 -9.640625 C 8.1875 -9.640625 9.34375 -9.191406 10.1875 -8.296875 C 11.039062 -7.410156 11.46875 -6.203125 11.46875 -4.671875 C 11.46875 -3.179688 11.023438 -1.984375 10.140625 -1.078125 C 9.253906 -0.171875 8.078125 0.28125 6.609375 0.28125 C 4.921875 0.28125 3.628906 -0.363281 2.734375 -1.65625 C 1.835938 -2.945312 1.390625 -4.820312 1.390625 -7.28125 C 1.390625 -9.582031 1.9375 -11.414062 3.03125 -12.78125 C 4.125 -14.15625 5.59375 -14.84375 7.4375 -14.84375 C 7.9375 -14.84375 8.4375 -14.789062 8.9375 -14.6875 C 9.445312 -14.59375 9.972656 -14.453125 10.515625 -14.265625 Z M 10.515625 -14.265625 "/>
</symbol>
</g>
</defs>
<g id="surface139">
<rect x="0" y="0" width="600" height="600" style="fill:rgb(100%,100%,100%);fill-opacity:1;stroke:none;"/>
<path style="fill:none;stroke-width:3;stroke-linecap:butt;stroke-linejoin:miter;stroke:rgb(0%,0%,0%);stroke-opacity:1;stroke-miterlimit:10;" d="M 520 340.246094 L 289.292969 370.332031 "/>
<path style="fill:none;stroke-width:3;stroke-linecap:butt;stroke-linejoin:miter;stroke:rgb(0%,0%,0%);stroke-opacity:1;stroke-miterlimit:10;" d="M 363.507812 520 L 289.292969 370.332031 "/>
<path style="fill:none;stroke-width:3;stroke-linecap:butt;stroke-linejoin:miter;stroke:rgb(0%,0%,0%);stroke-opacity:1;stroke-miterlimit:10;" d="M 80 443.605469 L 289.292969 370.332031 "/>
<path style="fill:none;stroke-width:3;stroke-linecap:butt;stroke-linejoin:miter;stroke:rgb(0%,0%,0%);stroke-opacity:1;stroke-miterlimit:10;" d="M 289.292969 370.332031 L 214.960938 220.429688 "/>
<path style="fill:none;stroke-width:3;stroke-linecap:butt;stroke-linejoin:miter;stroke:rgb(0%,0%,0%);stroke-opacity:1;stroke-miterlimit:10;" d="M 214.960938 220.429688 L 145.328125 80 "/>
<path style="fill-rule:nonzero;fill:rgb(100%,100%,100%);fill-opacity:1;stroke-width:1;stroke-linecap:butt;stroke-linejoin:miter;stroke:rgb(0%,0%,0%);stroke-opacity:1;stroke-miterlimit:10;" d="M 560 340.246094 C 560 362.335938 542.089844 380.246094 520 380.246094 C 497.910156 380.246094 480 362.335938 480 340.246094 C 480 318.152344 497.910156 300.246094 520 300.246094 C 542.089844 300.246094 560 318.152344 560 340.246094 "/>
<path style="fill-rule:nonzero;fill:rgb(100%,100%,100%);fill-opacity:1;stroke-width:1;stroke-linecap:butt;stroke-linejoin:miter;stroke:rgb(0%,0%,0%);stroke-opacity:1;stroke-miterlimit:10;" d="M 403.507812 520 C 403.507812 542.089844 385.597656 560 363.507812 560 C 341.417969 560 323.507812 542.089844 323.507812 520 C 323.507812 497.910156 341.417969 480 363.507812 480 C 385.597656 480 403.507812 497.910156 403.507812 520 "/>
<path style="fill-rule:nonzero;fill:rgb(100%,100%,100%);fill-opacity:1;stroke-width:1;stroke-linecap:butt;stroke-linejoin:miter;stroke:rgb(0%,0%,0%);stroke-opacity:1;stroke-miterlimit:10;" d="M 120 443.605469 C 120 465.695312 102.089844 483.605469 80 483.605469 C 57.910156 483.605469 40 465.695312 40 443.605469 C 40 421.515625 57.910156 403.605469 80 403.605469 C 102.089844 403.605469 120 421.515625 120 443.605469 "/>
<path style="fill-rule:nonzero;fill:rgb(74.509804%,74.509804%,74.509804%);fill-opacity:1;stroke-width:1;stroke-linecap:butt;stroke-linejoin:miter;stroke:rgb(0%,0%,0%);stroke-opacity:1;stroke-miterlimit:10;" d="M 329.292969 370.332031 C 329.292969 392.421875 311.382812 410.332031 289.292969 410.332031 C 267.203125 410.332031 249.292969 392.421875 249.292969 370.332031 C 249.292969 348.238281 267.203125 330.332031 289.292969 330.332031 C 311.382812 330.332031 329.292969 348.238281 329.292969 370.332031 "/>
<path style="fill-rule:nonzero;fill:rgb(100%,0%,0%);fill-opacity:1;stroke-width:1;stroke-linecap:butt;stroke-linejoin:miter;stroke:rgb(0%,0%,0%);stroke-opacity:1;stroke-miterlimit:10;" d="M 254.960938 220.429688 C 254.960938 242.519531 237.054688 260.429688 214.960938 260.429688 C 192.871094 260.429688 174.960938 242.519531 174.960938 220.429688 C 174.960938 198.339844 192.871094 180.429688 214.960938 180.429688 C 237.054688 180.429688 254.960938 198.339844 254.960938 220.429688 "/>
<path style="fill-rule:nonzero;fill:rgb(100%,100%,100%);fill-opacity:1;stroke-width:1;stroke-linecap:butt;stroke-linejoin:miter;stroke:rgb(0%,0%,0%);stroke-opacity:1;stroke-miterlimit:10;" d="M 185.328125 80 C 185.328125 102.089844 167.421875 120 145.328125 120 C 123.238281 120 105.328125 102.089844 105.328125 80 C 105.328125 57.910156 123.238281 40 145.328125 40 C 167.421875 40 185.328125 57.910156 185.328125 80 "/>
<g style="fill:rgb(0%,0%,0%);fill-opacity:1;">
  <use xlink:href="#glyph0-1" x="502.691406" y="349.894531"/>
  <use xlink:href="#glyph0-2" x="517.730469" y="349.894531"/>
  <use xlink:href="#glyph0-3" x="524.46875" y="349.894531"/>
</g>
<g style="fill:rgb(0%,0%,0%);fill-opacity:1;">
  <use xlink:href="#glyph0-1" x="346.277344" y="529.78125"/>
  <use xlink:href="#glyph0-2" x="361.316406" y="529.78125"/>
  <use xlink:href="#glyph0-4" x="368.054688" y="529.78125"/>
</g>
<g style="fill:rgb(0%,0%,0%);fill-opacity:1;">
  <use xlink:href="#glyph0-1" x="62.566406" y="453.386719"/>
  <use xlink:href="#glyph0-2" x="77.605469" y="453.386719"/>
  <use xlink:href="#glyph0-5" x="84.34375" y="453.386719"/>
</g>
<g style="fill:rgb(0%,0%,0%);fill-opacity:1;">
  <use xlink:href="#glyph0-6" x="272.578125" y="380.113281"/>
  <use xlink:href="#glyph0-2" x="286.542969" y="380.113281"/>
  <use xlink:href="#glyph0-7" x="293.28125" y="380.113281"/>
</g>
<g style="fill:rgb(0%,0%,0%);fill-opacity:1;">
  <use xlink:href="#glyph0-8" x="197.671875" y="230.210938"/>
  <use xlink:href="#glyph0-2" x="213.414062" y="230.210938"/>
  <use xlink:href="#glyph0-9" x="220.152344" y="230.210938"/>
</g>
<g style="fill:rgb(0%,0%,0%);fill-opacity:1;">
  <use xlink:href="#glyph0-1" x="127.726562" y="89.78125"/>
  <use xlink:href="#glyph0-2" x="142.765625" y="89.78125"/>
  <use xlink:href="#glyph0-10" x="149.503906" y="89.78125"/>
</g>
</g>
</svg>
